p8105_hw4_jh3909
…
## Parsed with column specification:
## cols(
##   DATE = col_date(format = ""),
##   VALUE = col_character()
## )

#combine the pols and gdp data
combined_data = left_join(pols_month, gdp, by = "date")
combined_data

## # A tibble: 822 x 10
##          date gov_gop sen_gop rep_gop gov_dem sen_dem rep_dem president
##        <date>   <int>   <int>   <int>   <int>   <int>   <int>     <chr>
##  1 1947-01-01      23      51     253      23      45     198       dem
##  2 1947-02-01      23      51     253      23      45     198       dem
##  3 1947-03-01      23      51     253      23      45     198       dem
##  4 1947-04-01      23      51     253      23      45     198       dem
##  5 1947-05-01      23      51     253      23      45     198       dem
##  6 1947-06-01      23      51     253      23      45     198       dem
##  7 1947-07-01      23      51     253      23      45     198       dem
##  8 1947-08-01      23      51     253      23      45     198       dem
##  9 1947-09-01      23      51     253      23      45     198       dem
## 10 1947-10-01      23      51     253      23      45     198       dem
## # ... with 812 more rows, and 2 more variables: value <chr>,
## #   gdp_value <chr>
…
